id|username|password|name|surname|phone|email|role
0|user1|pwd1|Name|Surname|021000000|mail@email.com|1
1|user2|pwd2|Name|Surname|021000000|mail@email.com|2
2|user3|pwd3|Name|Surname|021000000|mail@email.com|3
3|bijelic99|pwda|Dejan|Bijelic|021666666|mail@gmail.com|1
4|me12|sifra123|Ime|Prezime|025698887|mai@gmai.co|1
5|dejan|moja sifra|Ime|Prezime|555333|mail|1
6|user225|pwwd|Ime|Prezime|002556665|mail|1
7|gaga|sifra|Dragan|Bijelic|+38155525555|mail@gmail.com|1