id|name|address|bazen|restoran|prosecna_ocena
000000|Hotel Novi Sad|Novi Sad|1|1|5.00
000001|Park|Novi Sad|1|0|4.00
000002|Sheraton|Novi Sad|1|1|4.67
000003|Hotel Aleksandar|Novi Sad|0|1|4.00
000004|Hotel Dunav|Sremski Karlovci|0|1|3.50
000005|Putnik|Novi Sad|0|0|2.00