id|datum_i_vreme_rezervacije|datum_prijave|datum_odjave|username_korisnika|status_rezervacije|ocena_hotela|hotel_id
000003|2019-01-04 11:57:21|2019-01-15|2019-01-20|dejan|2|0|000003
000004|2019-01-04 12:00:31|2019-01-04|2019-01-10|bijelic99|2|0|000000
000006|2019-01-04 12:07:54|2020-01-01|2020-01-04|dejan|0|0|000000
000008|2019-01-04 17:24:53|2019-03-03|2019-03-10|bijelic99|0|0|000000
000009|2019-01-04 18:12:32|2019-04-06|2019-04-18|gaga|0|0|000001
000010|2019-01-04 18:15:51|2019-04-06|2019-04-15|gaga|0|0|000001
000011|2019-01-04 11:36:41|2019-01-01|2019-01-02|dejan|2|5|000001
000013|2019-01-08 11:24:55|2019-01-09|2019-01-15|bijelic99|2|0|000003
000014|2019-01-31 18:06:59|2019-02-02|2019-02-07|bijelic99|2|0|000005
000015|2019-02-02 16:26:35|2019-02-03|2019-02-13|user1|2|0|000002
000016|2019-02-02 17:47:06|2019-02-03|2019-02-05|user1|2|4|000002
000017|2019-02-02 17:59:11|2019-02-03|2019-02-05|user1|2|5|000002
000019|2019-02-02 18:43:44|2019-02-09|2019-02-10|user1|2|3|000001
000021|2019-02-03 15:29:13|2019-02-06|2019-02-10|user1|2|5|000002
000022|2019-02-05 21:44:14|2019-12-09|2019-12-13|user1|0|0|000002
000023|2019-02-05 21:57:47|2019-12-09|2019-12-14|user1|0|0|000002
000024|2019-02-10 16:36:47|2019-07-09|2019-07-10|userrr|0|0|000002
000025|2019-02-10 18:14:03|2019-02-10|2019-02-12|korisnik1|2|5|000000
000026|2019-02-10 18:16:23|2019-02-11|2019-02-15|korisnik1|1|0|000000
000027|2019-02-10 18:16:48|2019-09-09|2019-09-29|korisnik1|0|0|000000
000028|2019-02-10 18:38:16|2019-03-02|2019-03-10|korisnik2|0|0|000001
000029|2019-02-10 18:38:38|2019-03-03|2019-03-05|korisnik2|0|0|000002
000030|2019-02-10 18:39:53|2019-02-11|2019-02-12|korisnik3|2|0|000005
000031|2019-02-10 18:40:27|2019-02-15|2019-02-21|korisnik3|0|0|000003
000032|2019-02-10 18:40:51|2019-02-12|2019-02-16|korisnik3|1|0|000002
000033|2019-02-14 12:22:14|2019-02-15|2019-02-20|korisnik1|0|0|000002