id_rezervacije|id_sobe
000003|000010
000004|000000
000004|000001
000006|000002
000008|000000
000008|000003
000009|000004
000010|000006
000011|000005
000011|000006
000013|000013
000014|000022
000014|000023
000015|000007
000016|000008
000017|000009
000019|000034
000021|000008
000022|000007
000023|000008
000023|000009
000024|000009
000025|000000
000025|000001
000026|000003
000027|000000
000028|000004
000028|000034
000029|000008
000030|000023
000030|000022
000030|000024
000031|000010
000031|000012
000031|000013
000032|000008
000033|000007